ComputeSolution: [fileRead=/home/pablitomarin/Documentos/Universidad/Master/SC/Prácticas/GitPracticas/Practica1/../../Instancias/GKD-Ia/GKD-Ia_40_n15_m6.txt, 
solutionPoints=[8, 1, 2, 10, 5, 6, ], 
solution=Solution: [[x=6, y=10, value=161.87517], 
[x=8, y=10, value=153.74924], 
[x=8, y=6, value=157.48175], 
[x=2, y=8, value=144.8101], 
[x=2, y=10, value=198.88684], 
[x=2, y=6, value=135.35747], 
[x=1, y=8, value=179.65125], 
[x=1, y=2, value=138.62683], 
[x=1, y=10, value=164.43523], 
[x=1, y=6, value=145.82771], 
[x=5, y=8, value=164.64224], 
[x=5, y=1, value=141.30641], 
[x=5, y=2, value=160.5485], 
[x=5, y=10, value=151.48628], 
[x=5, y=6, value=179.44354], 
], 
Objetive Function= Point: [x=2, y=6, value=135.35747]]

